13 Датаг бүлэглэх | Тархвар судлаачийн R гарын авлага
…
dplyr -ын group_by() функц зааж өгсөн багана дах өвөрмөц утгын дагуу мөрүүдийг бүлэглэх болно. Ингэхдээ олон багана зааж өгвөл, мөрүүд эдгээр багануудын хооронд үүссэн өвөрмөц комбинацын дагуу бүлэглэгдэх болно. Өвөрмөц утга болгон (комбинац болгон) бүлэг бий болгоно. Ингэсний датанд хийгдэх аливаа өөрчлөлт, тооцоо зэрэг нь бүлэг тус бүрээр хийгдэх болно.

Жишээлбэл дараах коммандаар linelist хүснэгтийн outcome баганын утгуудаар мөрүүдийг бүлэглэсэн байна. Үүний дүнд үүсэх хүснэгтийгll_by_outcome-д хадгалсан. Бүлэглэх багануудыг group_by() функцэд хаалтан дотор бичнэ.

ll_by_outcome <- linelist %>% 
  group_by(outcome)

group_by()коммандыг өгснөөр датанд мэдэгдэхүйц өөрчлөлт гарахгүй. Харин энэхүү бүлэглэсэн датанд mutate(), summarise(), arrange() зэрэг dplyr-ын бусад функцыг уншуулсны дараа өөрчлөлт хийгдэж эхэлдэг болохыг анхаар.

Гэхдээ хүснэгтийг хэвлэснээр бүлэглэсэн датаг харж болно. Хэвлээд үзвэл хүснэгт tibble хэлбэрт орсон байх ба tibble class object ямар бүлгүүд, хэд бүлэглэгдсэн зэрэг мэдээлэл толгой мөрний дээр бичигдсэн байдаг.

# идвэхитэй ямар бүлгүүд байгааг хэвлэж хар
ll_by_outcome

## # A tibble: 5,888 x 30
## # Groups:   outcome [3]
##    case_id generation date_infection date_onset date_hospitalisation
##    <chr>        <dbl> <date>         <date>     <date>              
##  1 5fe599           4 2014-05-08     2014-05-13 2014-05-15          
##  2 8689b7           4 NA             2014-05-13 2014-05-14          
##  3 11f8ea           2 NA             2014-05-16 2014-05-18          
##  4 b8812a           3 2014-05-04     2014-05-18 2014-05-20          
##  5 893f25           3 2014-05-18     2014-05-21 2014-05-22          
##  6 be99c8           3 2014-05-03     2014-05-22 2014-05-23          
##  7 07e3e8           4 2014-05-22     2014-05-27 2014-05-29          
##  8 369449           4 2014-05-28     2014-06-02 2014-06-03          
##  9 f393b4           4 NA             2014-06-05 2014-06-06          
## 10 1389ca           4 NA             2014-06-05 2014-06-07          
## # ... with 5,878 more rows, and 25 more variables: date_outcome <date>,
## #   outcome <chr>, gender <chr>, age <dbl>, age_unit <chr>,
## #   age_years <dbl>, age_cat <fct>, age_cat5 <fct>, hospital <chr>,
## #   lon <dbl>, lat <dbl>, infector <chr>, source <chr>, wt_kg <dbl>,
## #   ht_cm <dbl>, ct_blood <dbl>, fever <chr>, chills <chr>, cough <chr>,
## #   aches <chr>, vomit <chr>, temp <dbl>, time_admission <chr>, bmi <dbl>,
## #   days_onset_hosp <dbl>
…
Тооллого нэмэх

Мөн add_count()-ээр тооллого хийж болох боловч count() болонsummarise()-ээс ялгаатай. Энэ функцыг хэрэглэснээр хуучин хүснэгт бүхлээрээ өөрчлөгдөхгүй хэвээр байх ба бүлэг бүрийн тоог гаргасан шинэ n гэсэн багана нэмэгддэг.

Өөрөөр хэлбэл шинэ n баганадах бүлэг тус бүрт агуулагдах мөрийн тоо тухайн бүлэгт хамаарах мөр болгонд бичигдэх болно гэсэн үг. Доор жишээнд ойлгомжтой харуулах үүднээс баганыг нэмээд дараа нь эрэмбэнд өөрчлөлт оруулсан болно. Мөн filter on group size хэсэгт өөр нэгэн жишээ харуулсаныг олж үзнэ үү.

linelist %>% 
  as_tibble() %>%                   # tibble болгож харагдах байдлыг сайжруулна
  add_count(hospital) %>%           # эмнэлэгийн тоотой n баганыг нэм 
  select(hospital, n, everything()) # харахад хялбар болгох үүднээс дахин эрэмбэл

## # A tibble: 5,888 x 31
##    hospital                   n case_id generation date_infection date_onset
##    <chr>                  <int> <chr>        <dbl> <date>         <date>    
##  1 Other                    885 5fe599           4 2014-05-08     2014-05-13
##  2 Missing                 1469 8689b7           4 NA             2014-05-13
##  3 St. Mark's Maternity ~   422 11f8ea           2 NA             2014-05-16
##  4 Port Hospital           1762 b8812a           3 2014-05-04     2014-05-18
##  5 Military Hospital        896 893f25           3 2014-05-18     2014-05-21
##  6 Port Hospital           1762 be99c8           3 2014-05-03     2014-05-22
##  7 Missing                 1469 07e3e8           4 2014-05-22     2014-05-27
##  8 Missing                 1469 369449           4 2014-05-28     2014-06-02
##  9 Missing                 1469 f393b4           4 NA             2014-06-05
## 10 Missing                 1469 1389ca           4 NA             2014-06-05
## # ... with 5,878 more rows, and 25 more variables:
## #   date_hospitalisation <date>, date_outcome <date>, outcome <chr>,
## #   gender <chr>, age <dbl>, age_unit <chr>, age_years <dbl>,
## #   age_cat <fct>, age_cat5 <fct>, lon <dbl>, lat <dbl>, infector <chr>,
## #   source <chr>, wt_kg <dbl>, ht_cm <dbl>, ct_blood <dbl>, fever <chr>,
## #   chills <chr>, cough <chr>, aches <chr>, vomit <chr>, temp <dbl>,
## #   time_admission <chr>, bmi <dbl>, days_onset_hosp <dbl>
…
linelist -ыг hospital баганын дугуу бүлэглэ

Эмнэлэг/бүлэг тус бүр доторх эмнэлэгт хэвтсэн огноог хамгийн сүүлчээс хамгийн эртрүү чиглэлтэйгээр эрэмбэл

Эмнэлэг тус бүрийн хамгийн эхний 5 мөрийг сугалж гаргаж ирнэ

linelist %>%
  group_by(hospital) %>%
  arrange(hospital, date_hospitalisation) %>%
  slice_head(n = 5) %>% 
  arrange(hospital) %>%                            # харуулах
  select(case_id, hospital, date_hospitalisation)  # харуулах

## # A tibble: 30 x 3
## # Groups:   hospital [6]
##    case_id hospital          date_hospitalisation
##    <chr>   <chr>             <date>              
##  1 20b688  Central Hospital  2014-05-06          
##  2 d58402  Central Hospital  2014-05-10          
##  3 b8f2fd  Central Hospital  2014-05-13          
##  4 acf422  Central Hospital  2014-05-28          
##  5 275cc7  Central Hospital  2014-05-28          
##  6 d1fafd  Military Hospital 2014-04-17          
##  7 974bc1  Military Hospital 2014-05-13          
##  8 6a9004  Military Hospital 2014-05-13          
##  9 09e386  Military Hospital 2014-05-14          
## 10 865581  Military Hospital 2014-05-15          
## # ... with 20 more rows
…
[De-duplication] хуудаснаас slice()-ын талаар тайлбарласныг уншна уу.

Бүлгийн том жижигээр нь шүүх

add_count() функц эх хүснэгтэд шинээр n гэсэн баганыг нэмдэг. Энэ баганын утга нь датандах мөр болгоны харьяалах бүлгийн хамрах хэмжээг зааж өгсөн байдаг.

Доор уишээнд add_count() функцыг hospital багана дээр хэрэглэсэн байна. Тиймээс n багана дах утга бол тухайн мөрөнд бичигдсэн эмнэлэгийн бүлэгт ноогдох мөрний тоо юм. Тиймээс n баганын утгууд олон давтагдсан байна. Баганын нэр n -ийг add_count()-ын name =аргументээр өөрчилж болно. Харуулахад ойлгомжтой болгох үүднээс багануудыг select()-ээр эрэмбэлсэн.

linelist %>% 
  as_tibble() %>% 
  add_count(hospital) %>%          # "энэ эмнэлэгтэй адилхан эмнэлэгт хэвтсэн мөрийн тоог" нэм 
  select(hospital, n, everything())

## # A tibble: 5,888 x 31
##    hospital                   n case_id generation date_infection date_onset
##    <chr>                  <int> <chr>        <dbl> <date>         <date>    
##  1 Other                    885 5fe599           4 2014-05-08     2014-05-13
##  2 Missing                 1469 8689b7           4 NA             2014-05-13
##  3 St. Mark's Maternity ~   422 11f8ea           2 NA             2014-05-16
##  4 Port Hospital           1762 b8812a           3 2014-05-04     2014-05-18
##  5 Military Hospital        896 893f25           3 2014-05-18     2014-05-21
##  6 Port Hospital           1762 be99c8           3 2014-05-03     2014-05-22
##  7 Missing                 1469 07e3e8           4 2014-05-22     2014-05-27
##  8 Missing                 1469 369449           4 2014-05-28     2014-06-02
##  9 Missing                 1469 f393b4           4 NA             2014-06-05
## 10 Missing                 1469 1389ca           4 NA             2014-06-05
## # ... with 5,878 more rows, and 25 more variables:
## #   date_hospitalisation <date>, date_outcome <date>, outcome <chr>,
## #   gender <chr>, age <dbl>, age_unit <chr>, age_years <dbl>,
## #   age_cat <fct>, age_cat5 <fct>, lon <dbl>, lat <dbl>, infector <chr>,
## #   source <chr>, wt_kg <dbl>, ht_cm <dbl>, ct_blood <dbl>, fever <chr>,
## #   chills <chr>, cough <chr>, aches <chr>, vomit <chr>, temp <dbl>,
## #   time_admission <chr>, bmi <dbl>, days_onset_hosp <dbl>
…
  # Шинэ баганууд
  mutate(
    # Эмнэлэгт хэвтэх хүртэлх өдрийн дундаж (таслалтын ард нэг орон байхаар хураа)
    group_delay_admit = round(mean(days_onset_hosp, na.rm=T), 1),
    
    # Тухайн мөрний хожуу хэвтэлт болон яг тэр мөрний эмнэлэгийн хожуу хэвтэлтийн дундаж хоёрын ялгаа (таслалтын ард нэг орон байхаар хураа)
    diff_to_group     = round(days_onset_hosp - group_delay_admit, 1)) %>%
  
  # Ойлгомжтой байлгахын тулд зөвхөн тодорхой багануудыг л сонго
  select(case_id, hospital, days_onset_hosp, group_delay_admit, diff_to_group)

## # A tibble: 5,888 x 5
## # Groups:   hospital [6]
##    case_id hospital           days_onset_hosp group_delay_adm~ diff_to_group
##    <chr>   <chr>                        <dbl>            <dbl>         <dbl>
##  1 5fe599  Other                            2              2             0  
##  2 8689b7  Missing                          1              2.1          -1.1
##  3 11f8ea  St. Mark's Matern~               2              2.1          -0.1
##  4 b8812a  Port Hospital                    2              2.1          -0.1
##  5 893f25  Military Hospital                1              2.1          -1.1
##  6 be99c8  Port Hospital                    1              2.1          -1.1
##  7 07e3e8  Missing                          2              2.1          -0.1
##  8 369449  Missing                          1              2.1          -1.1
##  9 f393b4  Missing                          1              2.1          -1.1
## 10 1389ca  Missing                          2              2.1          -0.1
## # ... with 5,878 more rows
…
