8 Дата цэвэрлэгээ ба үндсэн функцууд | Тархвар судлаачийн R гарын авлага
…
8.12 Мөр дагуу тооцоолол

Хэрэв мөр дагуу уртаашаа тооцоолол хийх бол dplyr-ын rowwise() функцыг хэрэглэ. Онлайн винньетийг row-wise calculations- ээс нэмж үзнэ үү .

Дор жишээнд linelist датанд rowwise() функц мөр болгоныг уртааш нь шалгаж үзээд “yes” гэсэн утгатай нүднүүдийн нийлбэртэй шинэ багана нэмсэн. Шалгагдах багануудыг sum() функцэд нэрээр нь вектороор c() уагсааж оруулна. rowwise() функц нь group_by() функцын нэг төрөл тул үйлдлээ хийж дуусаад эргүүлээд ungroup() коммандаар задлах шаардлагатай ([Grouping data] хэсэг).

linelist %>%
  rowwise() %>%
  mutate(num_symptoms = sum(c(fever, chills, cough, aches, vomit) == "yes")) %>% 
  ungroup() %>% 
  select(fever, chills, cough, aches, vomit, num_symptoms) # үзүүлэх зорилготой

## # A tibble: 5,888 x 6
##    fever chills cough aches vomit num_symptoms
##    <chr> <chr>  <chr> <chr> <chr>        <int>
##  1 no    no     yes   no    yes              2
##  2 <NA>  <NA>   <NA>  <NA>  <NA>            NA
##  3 <NA>  <NA>   <NA>  <NA>  <NA>            NA
##  4 no    no     no    no    no               0
##  5 no    no     yes   no    yes              2
##  6 no    no     yes   no    yes              2
##  7 <NA>  <NA>   <NA>  <NA>  <NA>            NA
##  8 no    no     yes   no    yes              2
##  9 no    no     yes   no    yes              2
## 10 no    no     yes   no    no               1
## # ... with 5,878 more rows
…
dplyr -ын c_across() дотор нөхцлөө оруулж өгнө. Учир нь c_across (documentation) функц rowwise() -аар ажилладаг. Жишээ нь дараах код ажиллах дараалал нь:

эхлээд rowwise() гүйцэтгэгдэх ба ингэснээр үүний дараа хийгдэх үйлдэл (sum()) мөр болгонд хийгднэ (багануудын нийлбэр биш).

num_NA_dates хэмээх шинэ баганыг нэмж, defined for each row as the number of columns (with name containing “date”) for which is.na() evaluated to TRUE (they are missing data).

ungroup() хийснээр дараагийн хийгдэх үйлдлүүдэд rowwise() нөлөөлөхгүй байх болно.

linelist %>%
  rowwise() %>%
  mutate(num_NA_dates = sum(is.na(c_across(contains("date"))))) %>% 
  ungroup() %>% 
  select(num_NA_dates, contains("date")) # үзүүлэх зорилготой

## # A tibble: 5,888 x 5
##    num_NA_dates date_infection date_onset date_hospitalisation date_outcome
##           <int> <date>         <date>     <date>               <date>      
##  1            1 2014-05-08     2014-05-13 2014-05-15           NA          
##  2            1 NA             2014-05-13 2014-05-14           2014-05-18  
##  3            1 NA             2014-05-16 2014-05-18           2014-05-30  
##  4            1 2014-05-04     2014-05-18 2014-05-20           NA          
##  5            0 2014-05-18     2014-05-21 2014-05-22           2014-05-29  
##  6            0 2014-05-03     2014-05-22 2014-05-23           2014-05-24  
##  7            0 2014-05-22     2014-05-27 2014-05-29           2014-06-01  
##  8            0 2014-05-28     2014-06-02 2014-06-03           2014-06-07  
##  9            1 NA             2014-06-05 2014-06-06           2014-06-18  
## 10            1 NA             2014-06-05 2014-06-07           2014-06-09  
## # ... with 5,878 more rows

Нэмж max() гэх мэт бусад функцыг хэрэглэж болно. max()-аар мөр болгон дах хамгийн шинэ огноог харуулдаг:

linelist %>%
  rowwise() %>%
  mutate(latest_date = max(c_across(contains("date")), na.rm=T)) %>% 
  ungroup() %>% 
  select(latest_date, contains("date"))  # үзүүлэх зорилготой

## # A tibble: 5,888 x 5
##    latest_date date_infection date_onset date_hospitalisation date_outcome
##    <date>      <date>         <date>     <date>               <date>      
##  1 2014-05-15  2014-05-08     2014-05-13 2014-05-15           NA          
##  2 2014-05-18  NA             2014-05-13 2014-05-14           2014-05-18  
##  3 2014-05-30  NA             2014-05-16 2014-05-18           2014-05-30  
##  4 2014-05-20  2014-05-04     2014-05-18 2014-05-20           NA          
##  5 2014-05-29  2014-05-18     2014-05-21 2014-05-22           2014-05-29  
##  6 2014-05-24  2014-05-03     2014-05-22 2014-05-23           2014-05-24  
##  7 2014-06-01  2014-05-22     2014-05-27 2014-05-29           2014-06-01  
##  8 2014-06-07  2014-05-28     2014-06-02 2014-06-03           2014-06-07  
##  9 2014-06-18  NA             2014-06-05 2014-06-06           2014-06-18  
## 10 2014-06-09  NA             2014-06-05 2014-06-07           2014-06-09  
## # ... with 5,878 more rows
…
